<svg version="1.1" xmlns="http://www.w3.org/2000/svg" xmlns:xlink="http://www.w3.org/1999/xlink">
    <symbol id="vidget" viewBox="0 0 16 14">
        <path
            d="M1.99999 4.1429H0.285677C0.208308 4.1429 0.141353 4.17104 0.0848119 4.22762C0.0282394 4.28422 0 4.35121 0 4.42861V6.14289C0 6.22023 0.0282394 6.28734 0.0848119 6.34379C0.141385 6.40017 0.208308 6.4286 0.285677 6.4286H1.99999C2.07736 6.4286 2.14432 6.4003 2.20086 6.34379C2.25743 6.28721 2.28567 6.22023 2.28567 6.14289V4.42861C2.28567 4.35121 2.2574 4.28422 2.20086 4.22762C2.14432 4.17114 2.07736 4.1429 1.99999 4.1429Z"
            fill="#045DA7" />
        <path
            d="M1.99999 11.0001H0.285677C0.208308 11.0001 0.141353 11.0281 0.0848119 11.0847C0.0282394 11.1413 0 11.2082 0 11.2856V13C0 13.0773 0.0282394 13.1442 0.0848119 13.2008C0.141385 13.2575 0.208308 13.2857 0.285677 13.2857H1.99999C2.07736 13.2857 2.14432 13.2574 2.20086 13.2008C2.25743 13.1443 2.28567 13.0773 2.28567 13V11.2856C2.28567 11.2082 2.2574 11.1413 2.20086 11.0847C2.14432 11.0283 2.07736 11.0001 1.99999 11.0001Z"
            fill="#045DA7" />
        <path
            d="M1.99999 7.57129H0.285677C0.208308 7.57129 0.141353 7.59975 0.0848119 7.65616C0.0282706 7.71258 0 7.77979 0 7.85706V9.57131C0 9.6488 0.0282394 9.71579 0.0848119 9.7723C0.141385 9.82884 0.208308 9.85696 0.285677 9.85696H1.99999C2.07736 9.85696 2.14432 9.82894 2.20086 9.7723C2.25743 9.71579 2.28567 9.6488 2.28567 9.57131V7.85706C2.28567 7.77979 2.2574 7.7128 2.20086 7.65616C2.14432 7.59965 2.07736 7.57129 1.99999 7.57129Z"
            fill="#045DA7" />
        <path
            d="M1.99999 0.714264H0.285677C0.208308 0.714264 0.141353 0.742503 0.0848119 0.799076C0.0282706 0.855648 0 0.922604 0 0.999973V2.71426C0 2.79166 0.0282394 2.85858 0.0848119 2.91515C0.141385 2.97173 0.208308 2.99996 0.285677 2.99996H1.99999C2.07736 2.99996 2.14432 2.97182 2.20086 2.91515C2.25743 2.85858 2.28567 2.79166 2.28567 2.71426V0.999973C2.28567 0.922572 2.2574 0.855648 2.20086 0.799076C2.14432 0.74266 2.07736 0.714264 1.99999 0.714264Z"
            fill="#045DA7" />
        <path
            d="M15.7143 11.0001H3.71433C3.63696 11.0001 3.57 11.0281 3.51346 11.0847C3.45689 11.1413 3.42865 11.2082 3.42865 11.2857V13.0001C3.42865 13.0773 3.45689 13.1442 3.51346 13.2008C3.57003 13.2575 3.63686 13.2857 3.71433 13.2857H15.7143C15.7918 13.2857 15.8586 13.2575 15.9153 13.2008C15.9719 13.1442 16 13.0773 16 13.0001V11.2857C16 11.2082 15.9718 11.1413 15.9153 11.0847C15.8586 11.0283 15.7917 11.0001 15.7143 11.0001Z"
            fill="#045DA7" />
        <path
            d="M15.7143 7.57129H3.71433C3.63696 7.57129 3.57 7.59975 3.51346 7.65616C3.45692 7.71258 3.42865 7.77979 3.42865 7.85706V9.57131C3.42865 9.6488 3.45689 9.71579 3.51346 9.7723C3.57003 9.82884 3.63686 9.85696 3.71433 9.85696H15.7143C15.7918 9.85696 15.8586 9.82894 15.9153 9.7723C15.9719 9.71579 16 9.6488 16 9.57131V7.85706C16 7.77979 15.9718 7.7128 15.9153 7.65616C15.8586 7.59975 15.7917 7.57129 15.7143 7.57129Z"
            fill="#045DA7" />
        <path
            d="M15.9153 0.799076C15.8586 0.742628 15.7918 0.714264 15.7143 0.714264H3.71433C3.63696 0.714264 3.57 0.742503 3.51346 0.799076C3.45692 0.855648 3.42865 0.922572 3.42865 0.999973V2.71426C3.42865 2.79166 3.45689 2.85858 3.51346 2.91515C3.57003 2.97173 3.63686 2.99996 3.71433 2.99996H15.7143C15.7918 2.99996 15.8586 2.97182 15.9153 2.91515C15.9719 2.85858 16 2.79166 16 2.71426V0.999973C16 0.922604 15.9718 0.855648 15.9153 0.799076Z"
            fill="#045DA7" />
        <path
            d="M15.7143 4.1429H3.71433C3.63696 4.1429 3.57 4.17104 3.51346 4.22762C3.45689 4.28422 3.42865 4.35121 3.42865 4.42861V6.14289C3.42865 6.22023 3.45689 6.28721 3.51346 6.34379C3.57003 6.40017 3.63686 6.4286 3.71433 6.4286H15.7143C15.7918 6.4286 15.8586 6.4003 15.9153 6.34379C15.9719 6.28721 16 6.22023 16 6.14289V4.42861C16 4.35121 15.9718 4.28422 15.9153 4.22762C15.8586 4.17114 15.7917 4.1429 15.7143 4.1429Z"
            fill="#045DA7" />
    </symbol>
    <symbol id="table" viewBox="0 0 16 10">
        <line y1="1" x2="16" y2="1" stroke="#045DA7" stroke-width="2" />
        <line y1="5" x2="16" y2="5" stroke="#045DA7" stroke-width="2" />
        <line y1="9" x2="16" y2="9" stroke="#045DA7" stroke-width="2" />
    </symbol>
    <symbol id="options" viewBox="0 0 4 14">
        <path d="M4 1.75C4 0.7875 3.1 0 2 0C0.9 0 0 0.7875 0 1.75C0 2.7125 0.9 3.5 2 3.5C3.1 3.5 4 2.7125 4 1.75ZM4 12.25C4 11.2875 3.1 10.5 2 10.5C0.9 10.5 0 11.2875 0 12.25C0 13.2125 0.9 14 2 14C3.1 14 4 13.2125 4 12.25ZM4 7C4 6.0375 3.1 5.25 2 5.25C0.9 5.25 0 6.0375 0 7C0 7.9625 0.9 8.75 2 8.75C3.1 8.75 4 7.9625 4 7Z" fill="#045DA7"/>
    </symbol>
    <symbol id="up" viewBox="0 0 16 16">
        <path d="M9 12L11 14L13 12" stroke="black" stroke-linecap="round" stroke-linejoin="round"/>
        <path d="M11 2V14" stroke="black" stroke-linecap="round" stroke-linejoin="round"/>
        <path d="M7 4L5 2L3 4" stroke="black" stroke-linecap="round" stroke-linejoin="round"/>
        <path d="M5 14V2.00001" stroke="black" stroke-linecap="round" stroke-linejoin="round"/>
    </symbol>
    <symbol id="down" viewBox="0 0 16 16">
        <path d="M7 12L5 14L3 12" stroke="black" stroke-linecap="round" stroke-linejoin="round"/>
        <path d="M5 2V14" stroke="black" stroke-linecap="round" stroke-linejoin="round"/>
        <path d="M9 4L11 2L13 4" stroke="black" stroke-linecap="round" stroke-linejoin="round"/>
        <path d="M11 14V2.00001" stroke="black" stroke-linecap="round" stroke-linejoin="round"/>
    </symbol>
    <symbol id="remove" viewBox="0 0 10 12">
        <path d="M8.94302 3.33334H1.0571C0.818458 3.33334 0.625 3.51431 0.625 3.7376V10.0532C0.625 11.1267 1.55841 12 2.70559 12H7.29433C8.44161 12 9.375 11.1267 9.375 10.0532V3.7376C9.375 3.51437 9.18165 3.33334 8.94302 3.33334ZM3.96132 9.56509C3.96132 9.83936 3.72371 10.0617 3.43046 10.0617C3.1374 10.0617 2.89961 9.83936 2.89961 9.56509V5.76827C2.89961 5.49394 3.13734 5.27161 3.43046 5.27161C3.72365 5.27161 3.96132 5.494 3.96132 5.76827V9.56509ZM7.10038 9.56509C7.10038 9.83936 6.86271 10.0617 6.56953 10.0617C6.27646 10.0617 6.03867 9.83936 6.03867 9.56509V5.76827C6.03867 5.49394 6.2764 5.27161 6.56953 5.27161C6.86271 5.27161 7.10038 5.494 7.10038 5.76827V9.56509Z"/>
        <path d="M8.64331 0.580362H6.68968V0.439447C6.68968 0.197134 6.45268 0 6.16137 0H3.83868C3.54737 0 3.3103 0.197134 3.3103 0.439447V0.580362H1.35671C0.608638 0.580362 0 1.08655 0 1.70875V2.43233C0 2.56173 0.126125 2.66667 0.281775 2.66667H9.71831C9.87388 2.66667 10 2.56173 10 2.43233V1.70875C10 1.08656 9.39144 0.580362 8.64331 0.580362Z"/>
    </symbol>
</svg>